<?xml version="1.0" encoding="UTF-8"?>
<glyph name="k3u2" format="2">
	<advance width="1781"/>
	<outline>
		<contour>
			<point x="1398" y="355" type="curve" smooth="yes"/>
			<point x="1383" y="355"/>
			<point x="1360" y="351"/>
			<point x="1348" y="351" type="curve" smooth="yes"/>
			<point x="1333" y="351"/>
			<point x="1318" y="369"/>
			<point x="1318" y="385" type="curve" smooth="yes"/>
			<point x="1318" y="422"/>
			<point x="1346" y="420"/>
			<point x="1384" y="426" type="curve" smooth="yes"/>
			<point x="1483" y="442"/>
			<point x="1572" y="557"/>
			<point x="1572" y="662" type="curve" smooth="yes"/>
			<point x="1572" y="809"/>
			<point x="1424" y="943"/>
			<point x="1272" y="943" type="curve" smooth="yes"/>
			<point x="1037" y="943"/>
			<point x="944" y="788"/>
			<point x="944" y="540" type="curve" smooth="yes"/>
			<point x="944" y="443" type="line" smooth="yes"/>
			<point x="944" y="176"/>
			<point x="835" y="-11"/>
			<point x="573" y="-11" type="curve" smooth="yes"/>
			<point x="300" y="-11"/>
			<point x="100" y="224"/>
			<point x="100" y="477" type="curve" smooth="yes"/>
			<point x="100" y="737"/>
			<point x="251" y="923"/>
			<point x="441" y="1002" type="curve"/>
			<point x="445" y="1004"/>
			<point x="451" y="1005"/>
			<point x="458" y="1005" type="curve" smooth="yes"/>
			<point x="476" y="1005"/>
			<point x="490" y="987"/>
			<point x="490" y="966" type="curve" smooth="yes"/>
			<point x="490" y="953"/>
			<point x="483" y="944"/>
			<point x="468" y="938" type="curve" smooth="yes"/>
			<point x="302" y="869"/>
			<point x="170" y="705"/>
			<point x="170" y="479" type="curve" smooth="yes"/>
			<point x="170" y="264"/>
			<point x="343" y="57"/>
			<point x="571" y="57" type="curve" smooth="yes"/>
			<point x="795" y="57"/>
			<point x="874" y="213"/>
			<point x="874" y="443" type="curve" smooth="yes"/>
			<point x="874" y="540" type="line" smooth="yes"/>
			<point x="874" y="826"/>
			<point x="990" y="1013"/>
			<point x="1274" y="1013" type="curve" smooth="yes"/>
			<point x="1466" y="1013"/>
			<point x="1639" y="850"/>
			<point x="1639" y="659" type="curve" smooth="yes"/>
			<point x="1639" y="555"/>
			<point x="1577" y="455"/>
			<point x="1502" y="404" type="curve"/>
			<point x="1595" y="367"/>
			<point x="1681" y="272"/>
			<point x="1681" y="143" type="curve" smooth="yes"/>
			<point x="1681" y="-142"/>
			<point x="1432" y="-199"/>
			<point x="1109" y="-199" type="curve" smooth="yes"/>
			<point x="434" y="-198" type="line" smooth="yes"/>
			<point x="289" y="-198"/>
			<point x="168" y="-233"/>
			<point x="168" y="-345" type="curve" smooth="yes"/>
			<point x="168" y="-466"/>
			<point x="292" y="-496"/>
			<point x="424" y="-496" type="curve" smooth="yes"/>
			<point x="1642" y="-496" type="line" smooth="yes"/>
			<point x="1662" y="-496"/>
			<point x="1677" y="-512"/>
			<point x="1677" y="-531" type="curve" smooth="yes"/>
			<point x="1677" y="-550"/>
			<point x="1661" y="-566"/>
			<point x="1642" y="-566" type="curve" smooth="yes"/>
			<point x="424" y="-566" type="line" smooth="yes"/>
			<point x="237" y="-566"/>
			<point x="100" y="-496"/>
			<point x="100" y="-350" type="curve" smooth="yes"/>
			<point x="100" y="-178"/>
			<point x="257" y="-128"/>
			<point x="434" y="-128" type="curve" smooth="yes"/>
			<point x="1168" y="-129" type="line" smooth="yes"/>
			<point x="1415" y="-129"/>
			<point x="1612" y="-65"/>
			<point x="1612" y="147" type="curve" smooth="yes"/>
			<point x="1612" y="261"/>
			<point x="1504" y="355"/>
		</contour>
	</outline>
	<lib>
		<dict>
			<key>org.fontforge.glyphclass</key>
			<string>baseligature</string>
		</dict>
	</lib>
</glyph>
