<?xml version="1.0" encoding="UTF-8"?>
<glyph name="t1r1" format="2">
	<advance width="1083"/>
	<outline>
		<contour>
			<point x="691" y="-10" type="curve"/>
			<point x="800" y="12"/>
			<point x="913" y="83"/>
			<point x="913" y="210" type="curve" smooth="yes"/>
			<point x="913" y="293"/>
			<point x="859" y="349"/>
			<point x="804" y="384" type="curve" smooth="yes"/>
			<point x="666" y="471"/>
			<point x="485" y="435"/>
			<point x="319" y="505" type="curve" smooth="yes"/>
			<point x="232" y="541"/>
			<point x="139" y="623"/>
			<point x="137" y="740" type="curve" smooth="yes"/>
			<point x="137" y="742" type="line" smooth="yes"/>
			<point x="137" y="945"/>
			<point x="354" y="1013"/>
			<point x="547" y="1013" type="curve" smooth="yes"/>
			<point x="726" y="1013"/>
			<point x="857" y="948"/>
			<point x="925" y="829" type="curve" smooth="yes"/>
			<point x="928" y="824"/>
			<point x="930" y="816"/>
			<point x="930" y="811" type="curve" smooth="yes"/>
			<point x="930" y="792"/>
			<point x="914" y="776"/>
			<point x="895" y="776" type="curve" smooth="yes"/>
			<point x="884" y="776"/>
			<point x="870" y="784"/>
			<point x="864" y="794" type="curve" smooth="yes"/>
			<point x="808" y="893"/>
			<point x="698" y="943"/>
			<point x="546" y="943" type="curve" smooth="yes"/>
			<point x="391" y="943"/>
			<point x="207" y="900"/>
			<point x="207" y="742" type="curve" smooth="yes"/>
			<point x="207" y="741" type="line" smooth="yes"/>
			<point x="207" y="655"/>
			<point x="281" y="596"/>
			<point x="346" y="569" type="curve" smooth="yes"/>
			<point x="507" y="502"/>
			<point x="696" y="534"/>
			<point x="841" y="443" type="curve" smooth="yes"/>
			<point x="912" y="397"/>
			<point x="983" y="320"/>
			<point x="983" y="209" type="curve" smooth="yes"/>
			<point x="983" y="-33"/>
			<point x="724" y="-95"/>
			<point x="495" y="-95" type="curve" smooth="yes"/>
			<point x="390" y="-95" type="line" smooth="yes"/>
			<point x="252" y="-95"/>
			<point x="100" y="-54"/>
			<point x="100" y="92" type="curve" smooth="yes"/>
			<point x="100" y="219"/>
			<point x="236" y="276"/>
			<point x="381" y="276" type="curve" smooth="yes"/>
			<point x="544" y="276"/>
			<point x="718" y="204"/>
			<point x="718" y="79" type="curve" smooth="yes"/>
			<point x="718" y="52"/>
			<point x="709" y="22"/>
		</contour>
		<contour>
			<point x="644" y="75" type="curve" smooth="yes"/>
			<point x="644" y="161"/>
			<point x="514" y="205"/>
			<point x="390" y="205" type="curve" smooth="yes"/>
			<point x="279" y="205"/>
			<point x="170" y="170"/>
			<point x="170" y="92" type="curve" smooth="yes"/>
			<point x="170" y="-9"/>
			<point x="288" y="-25"/>
			<point x="390" y="-25" type="curve" smooth="yes"/>
			<point x="495" y="-25" type="line" smooth="yes"/>
			<point x="577" y="-25"/>
			<point x="644" y="-5"/>
		</contour>
	</outline>
	<lib>
		<dict>
			<key>org.fontforge.glyphclass</key>
			<string>baseligature</string>
		</dict>
	</lib>
</glyph>
