<?xml version="1.0" encoding="UTF-8"?>
<glyph name="t2" format="2">
	<unicode hex="0D20"/>
	<advance width="1236"/>
	<outline>
		<contour>
			<point x="100" y="493" type="curve" smooth="yes"/>
			<point x="100" y="793"/>
			<point x="322" y="1014"/>
			<point x="620" y="1014" type="curve" smooth="yes"/>
			<point x="902" y="1014"/>
			<point x="1136" y="772"/>
			<point x="1136" y="493" type="curve" smooth="yes"/>
			<point x="1136" y="185"/>
			<point x="902" y="-12"/>
			<point x="620" y="-14" type="curve" smooth="yes"/>
			<point x="325" y="-14"/>
			<point x="100" y="198"/>
		</contour>
		<contour>
			<point x="620" y="944" type="curve" smooth="yes"/>
			<point x="376" y="944"/>
			<point x="170" y="739"/>
			<point x="170" y="493" type="curve" smooth="yes"/>
			<point x="170" y="236"/>
			<point x="364" y="56"/>
			<point x="620" y="56" type="curve" smooth="yes"/>
			<point x="867" y="56"/>
			<point x="1066" y="246"/>
			<point x="1066" y="493" type="curve" smooth="yes"/>
			<point x="1066" y="733"/>
			<point x="877" y="944"/>
		</contour>
	</outline>
	<lib>
		<dict>
			<key>org.fontforge.glyphclass</key>
			<string>baseglyph</string>
		</dict>
	</lib>
</glyph>
